^D:\GC2A10\C++KADAI\CPP_KADAI\課題２\MAIN.CPP|D:\GC2A10\C++KADAI\CPP_KADAI\課題２\TRIANGLECLASS.CPP
D:\GC2A10\C++KADAI\CPP_KADAI\課題２\DEBUG\VC142.PDB
D:\GC2A10\C++KADAI\CPP_KADAI\課題２\DEBUG\VC142.IDB
D:\GC2A10\C++KADAI\CPP_KADAI\課題２\DEBUG\TRIANGLECLASS.OBJ
D:\GC2A10\C++KADAI\CPP_KADAI\課題２\DEBUG\MAIN.OBJ
^D:\GC2A10\C++KADAI\CPP_KADAI\課題２\MAIN.CPP
D:\GC2A10\C++KADAI\CPP_KADAI\課題２\DEBUG\VC142.PDB
^D:\GC2A10\C++KADAI\CPP_KADAI\課題２\TRIANGLECLASS.CPP
D:\GC2A10\C++KADAI\CPP_KADAI\課題２\DEBUG\VC142.PDB
